00:41:54: Backup started on Thursday January 2, 2014.
01:07:21: Creating SQL backup of your WordPress core.
01:07:21: Creating SQL backup of your WordPress plugins.
01:07:21: Backing up WordPress path at (/home/tamra/public_html/).
01:07:27: Approximately 23% complete.
01:07:33: Approximately 37% complete.
01:07:39: Approximately 43% complete.
01:07:45: Approximately 46% complete.
01:07:51: Approximately 56% complete.
01:07:57: Approximately 65% complete.
01:08:03: Approximately 72% complete.
01:08:11: Approximately 99% complete.
Uploaded Files:[{"file":"wp-content\/backups\/tamra_wrdp1-backup-core.sql","mtime":1388624841}]
01:08:15: A total of 1723 files were processed.
01:08:15: Backup complete.
01:08:15: A total of 22MB of memory was used to complete this backup.
01:08:15: Uploading /home/tamra/public_html/wp-content/backups/wpb2d-backup-log.txt.
